<?xml version="1.0" encoding="UTF-8" standalone="no"?>
<svg
   xmlns:dc="http://purl.org/dc/elements/1.1/"
   xmlns:cc="http://creativecommons.org/ns#"
   xmlns:rdf="http://www.w3.org/1999/02/22-rdf-syntax-ns#"
   xmlns:svg="http://www.w3.org/2000/svg"
   xmlns="http://www.w3.org/2000/svg"
   width="75.647049mm"
   height="67.737251mm"
   viewBox="0 0 75.647049 67.737251"
   version="1.1"
   id="svg8">
  <defs
     id="defs2" />
  <metadata
     id="metadata5">
    <rdf:RDF>
      <cc:Work
         rdf:about="">
        <dc:format>image/svg+xml</dc:format>
        <dc:type
           rdf:resource="http://purl.org/dc/dcmitype/StillImage" />
        <dc:title></dc:title>
      </cc:Work>
    </rdf:RDF>
  </metadata>
  <g
     id="layer1"
     transform="translate(-66.293145,-18.270389)">
    <path
       style="fill:#FFD54F;stroke-width:0.264583"
       d="m 67.818152,85.871437 c -0.0104,-0.0728 -0.0274,-0.69784 -0.0378,-1.38907 l -0.0189,-1.25677 15.84168,-0.0682 15.84169,-0.0683 1.627988,-1.61353 1.628,-1.61353 -0.0915,-3.08072 c -0.0503,-1.69439 -0.16648,-4.433102 -0.25811,-6.086021 -0.11252,-2.029851 -0.0729,-3.09903 0.12216,-3.294062 0.17817,-0.178171 0.28876,-1.57004 0.28876,-3.634415 0,-3.708376 0.048,-3.595688 -1.98438,-4.660302 -1.262888,-0.661546 -3.821708,-2.062935 -5.291658,-2.89809 -0.58209,-0.330711 -1.56798,-0.861094 -2.19088,-1.178631 -1.7678,-0.901179 -1.91017,-1.256033 -1.91017,-4.76122 0,-2.986572 -0.018,-3.081845 -0.63419,-3.362616 -1.0538,-0.480147 -2.01523,-1.987788 -2.17113,-3.404611 -0.16625,-1.510911 0.60812,-3.288533 1.81598,-4.168733 1.09102,-0.795049 3.75581,-0.891376 4.89437,-0.176921 1.658,1.040416 2.46994,3.25056 1.93034,5.254482 -0.26,0.965552 -0.67094,1.438243 -2.59422,2.984019 -0.2134,0.171508 -0.33073,0.9951 -0.33073,2.321478 0,1.250563 0.12953,2.215443 0.33073,2.463625 0.1819,0.224377 1.16417,0.863063 2.18281,1.419297 1.77511,0.969301 2.53773,1.393348 4.431768,2.464228 0.47294,0.267399 1.00873,0.436071 1.19063,0.374828 0.25534,-0.08597 0.33073,-2.035305 0.33073,-8.552218 V 39.44457 l -1.04865,-0.693963 c -1.46218,-0.967621 -2.241758,-2.635605 -2.002568,-4.28464 0.23645,-1.630114 1.074858,-2.848983 2.407148,-3.499499 3.70252,-1.807824 7.67659,1.883464 6.09723,5.663387 -0.20222,0.483981 -0.91659,1.338808 -1.5875,1.899613 l -1.21983,1.019649 v 8.245951 c 0,6.519133 0.0734,8.306822 0.35026,8.536634 0.19805,0.164372 0.45674,0.191569 0.59531,0.06258 0.13478,-0.125455 1.43568,-0.854908 2.89089,-1.621009 1.45521,-0.766101 3.09232,-1.674146 3.63802,-2.017882 l 0.99219,-0.624972 V 49.907015 47.68361 l -1.09637,-0.868344 c -3.60684,-2.856669 -2.00672,-8.171955 2.4601,-8.171955 1.48082,0 2.68527,0.58738 3.56233,1.737267 0.64908,0.850987 0.76172,1.238838 0.75733,2.607763 -0.006,1.876067 -0.51486,2.910856 -1.86731,3.797406 l -0.90566,0.59368 v 3.159101 3.159104 l -0.88487,0.674923 c -0.48668,0.371208 -0.9653,0.674923 -1.06359,0.674923 -0.0983,0 -0.62284,0.277151 -1.16565,0.615894 -0.91789,0.572805 -4.01067,2.264902 -6.59131,3.606173 -0.60855,0.316291 -1.2513,0.749599 -1.42833,0.962909 -0.24658,0.297114 -0.2748,2.10334 -0.12065,7.72174 0.22009,8.021513 0.21653,10.076663 -0.0211,12.141993 -0.14963,1.30062 -0.27247,1.48106 -2.4767,3.63802 l -2.31926,2.26952 H 84.275352 c -9.04103,0 -16.44674,-0.0595 -16.45714,-0.13229 z m 26.38317,-42.089971 c 0.91858,-1.401916 -1.05401,-2.946873 -2.31058,-1.809689 -0.68,0.615389 -0.63694,1.326925 0.12652,2.090375 0.74785,0.747861 1.58023,0.64089 2.18406,-0.280686 z m 22.309758,0.170905 c 0.68713,-1.283917 -0.0299,-2.481892 -1.40469,-2.346785 -0.55974,0.05501 -0.94154,0.300794 -1.20785,0.777549 -0.34873,0.624324 -0.34204,0.769369 0.064,1.389063 0.57364,0.875498 2.11798,0.984679 2.54854,0.180173 z m -11.34485,-7.977822 c 0.40546,-0.405457 0.50702,-0.739259 0.38239,-1.256771 -0.34043,-1.413615 -1.92765,-1.850773 -2.66025,-0.732692 -1.05932,1.616725 0.921,3.34632 2.27786,1.989463 z m 0.81875,49.418738 c -0.74703,-0.79517 -0.7285,-0.99093 0.16831,-1.77804 l 0.74541,-0.65423 16.78324,0.13229 16.78324,0.13229 v 1.32292 1.32292 l -16.95155,0.0681 -16.95155,0.0681 z m -30.155378,-4.75732 c -0.64794,-0.80617 -0.8488,-3.47943 -0.8488,-11.296787 0,-4.494512 0.0893,-8.44748 0.19844,-8.784374 0.10914,-0.336896 0.1389,-3.17238 0.0662,-6.301078 l -0.13229,-5.688542 -4.08255,-0.0733 c -2.55703,-0.0459 -4.21809,-0.185782 -4.44528,-0.374338 -0.20362,-0.168986 -0.32779,-0.65877 -0.28308,-1.11652 0.0717,-0.733727 0.90191,-1.431163 8.28174,-6.957018 4.51115,-3.377846 8.97599,-6.735626 9.92187,-7.461733 0.94589,-0.726106 3.74386,-2.808797 6.21771,-4.628202 2.47386,-1.819404 4.87979,-3.618726 5.34651,-3.998492 2.55999,-2.083008 7.624718,-5.685194 7.993488,-5.685194 0.23529,0 0.87609,0.30462 1.42398,0.676933 0.76225,0.517959 6.74971,5.006542 8.52335,6.389663 0.23599,0.184022 2.18538,1.643503 7.90838,5.920887 0.85931,0.642249 1.95938,1.465381 2.44461,1.829184 0.48522,0.363802 1.92528,1.431053 3.20012,2.371669 1.27484,0.940616 2.4569,1.84503 2.62681,2.009809 0.1699,0.16478 1.47959,1.150329 2.91042,2.19011 3.16439,2.29956 6.79582,5.036416 7.95931,5.998586 0.91536,0.756981 1.16322,1.929961 0.52052,2.463356 -0.19736,0.163793 -2.05188,0.315748 -4.43177,0.363124 l -4.0924,0.08147 -0.13229,8.069792 c -0.0728,4.438385 -0.043,8.182901 0.0661,8.321146 0.25015,0.31686 0.26173,2.904445 0.0141,3.152068 -0.10138,0.101381 -0.15725,1.817865 -0.12415,3.814411 0.0331,1.99655 -0.0517,3.79822 -0.18853,4.00372 -0.16703,0.25091 -0.12624,0.49612 0.12414,0.74651 0.22943,0.22942 0.37287,0.92688 0.37287,1.81305 0,1.3409 -0.0593,1.47635 -0.8599,1.96449 -0.82141,0.50083 -1.36127,0.52433 -12.06386,0.52528 -10.1952,7.9e-4 -11.27486,-0.0407 -11.99135,-0.46204 l -0.78736,-0.46302 0.0615,-8.202073 c 0.0338,-4.511146 0.1635,-8.502113 0.28819,-8.868818 0.15718,-0.462259 1.05699,-1.16292 2.93402,-2.284645 5.01477,-2.996856 6.14303,-3.662106 6.67274,-3.934368 0.45474,-0.233738 0.52848,-0.544113 0.53428,-2.248958 0.008,-2.280185 0.41219,-3.103105 2.02552,-4.12156 1.79372,-1.132327 4.51122,-0.729396 5.75633,0.853506 0.80148,1.018913 1.15465,2.383163 0.95743,3.698354 -0.33955,2.264262 -3.01196,4.124296 -5.307,3.693742 -0.88063,-0.165209 -1.89858,0.275587 -5.15386,2.231731 -1.73702,1.043808 -4.39283,2.54979 -5.23573,2.968948 -0.42481,0.211241 -0.54516,0.425244 -0.40323,0.717008 0.19191,0.394541 0.23132,2.71621 0.0654,3.855476 -0.0424,0.291042 -0.0558,2.571504 -0.0299,5.067697 l 0.0472,4.53852 1.38906,0.10922 c 0.76399,0.0601 1.54231,-0.006 1.72961,-0.1473 0.21183,-0.15956 3.01187,-0.20015 7.40833,-0.10738 3.88729,0.082 7.39434,0.0866 7.79345,0.0101 l 0.72566,-0.13906 0.028,-7.311718 c 0.0154,-4.021445 0.10558,-11.118417 0.20039,-15.771048 l 0.17238,-8.459344 0.66145,-0.334163 c 0.36381,-0.18379 1.5842,-0.335918 2.71198,-0.338064 1.12779,-0.0021 2.04804,-0.0932 2.04503,-0.202337 -0.004,-0.160954 -10.94647,-8.483106 -16.07291,-12.224547 -2.62447,-1.915424 -7.34289,-5.440527 -7.46951,-5.580429 -0.31403,-0.346958 -7.40143,-5.558462 -7.73149,-5.68512 -0.20224,-0.07761 -1.65524,0.835435 -3.26374,2.050889 -1.594558,1.204923 -3.156298,2.369363 -3.470518,2.587644 -0.31422,0.218281 -3.40899,2.532006 -6.87727,5.141611 -3.46827,2.609605 -8.15142,6.121818 -10.40699,7.804918 -4.75513,3.548261 -4.24926,3.166636 -6.01927,4.540861 -0.76398,0.593153 -1.38906,1.175176 -1.38906,1.293384 0,0.11821 1.00783,0.256908 2.23962,0.308221 1.5439,0.06432 2.36375,0.217466 2.63923,0.493024 0.34556,0.345655 0.40946,2.482451 0.47236,15.795782 0.0574,12.156936 0.14469,15.467966 0.41471,15.737866 0.25456,0.25444 1.70865,0.35036 5.68855,0.37525 2.94061,0.0184 5.52516,0.0541 5.74344,0.0793 1.02666,0.11856 7.04757,-0.33902 7.32265,-0.55651 0.20968,-0.16578 0.26568,-0.82328 0.17166,-2.01579 -0.18482,-2.34442 -0.18688,-2.983454 -0.0175,-5.408484 0.0788,-1.12817 0.0361,-2.117463 -0.0949,-2.198426 -0.32577,-0.201332 -0.30276,-2.955269 0.0264,-3.158688 0.40268,-0.248867 0.31641,-0.658178 -0.17876,-0.848196 -0.24385,-0.09357 -1.74716,-0.923272 -3.3407,-1.843778 -1.59354,-0.92051 -2.93588,-1.673651 -2.98298,-1.673651 -0.0471,0 -0.7738,-0.414544 -1.61489,-0.921208 -1.37638,-0.829122 -1.66369,-0.905407 -2.8742,-0.763135 -1.66026,0.19513 -3.16957,-0.484193 -4.26413,-1.91924 -1.01394,-1.329338 -1.05617,-3.529134 -0.0947,-4.933612 1.77461,-2.592313 5.46256,-2.734685 7.33095,-0.283009 0.65848,0.864056 0.74339,1.197007 0.74339,2.915031 v 1.93956 l 1.50956,0.909389 c 0.83026,0.500163 2.02088,1.197668 2.64583,1.550011 1.93319,1.08992 5.62032,3.371369 5.898768,3.649922 0.14552,0.145571 0.29002,0.943179 0.3211,1.772463 0.10511,2.804252 0.0682,9.440961 -0.0562,10.106741 -0.068,0.36381 -0.0363,1.55443 0.0703,2.64584 0.25573,2.61671 0.17848,2.99188 -0.726068,3.52622 -0.68962,0.40736 -1.88432,0.44992 -12.26714,0.43698 -8.67958,-0.0108 -11.5664,-0.0931 -11.76093,-0.33513 z m 11.25589,-25.533482 c 0.44205,-0.562354 0.41681,-1.137275 -0.0811,-1.848218 -0.51424,-0.734174 -1.53184,-0.760992 -2.23396,-0.05887 -0.7233,0.723305 -0.66376,1.44322 0.17387,2.102099 0.76318,0.600319 1.57409,0.526465 2.14123,-0.195008 z m 36.560028,-0.152522 c 0.46547,-0.869738 0.27462,-1.53279 -0.57857,-2.010058 -0.65232,-0.364903 -0.79914,-0.364903 -1.45146,0 -0.85319,0.477268 -1.04405,1.14032 -0.57858,2.010058 0.25906,0.484045 0.55593,0.626681 1.30431,0.626681 0.74838,0 1.04525,-0.142636 1.3043,-0.626681 z"
       id="path899" />
  </g>
</svg>
